{
  "created": 1326853478,
  "livemode": false,
  "id": "evt_00000000000000",
  "type": "invoice.created",
  "object": "event",
  "request": null,
  "api_version": "2017-04-06",
  "user_id": "acct_19s0rJIF8FPjO9pQ",
  "data": {
    "object": {
      "id": "in_1AHeQ8IF8FPjO9pQrb32UAfs",
      "object": "invoice",
      "amount_due": 999,
      "application_fee": null,
      "attempt_count": 0,
      "attempted": true,
      "charge": "ch_1AHeQ8IF8FPjO9pQr8yQ5U8s",
      "closed": true,
      "currency": "usd",
      "customer": "cus_AIc50csZqUniAA",
      "date": 1494359696,
      "description": null,
      "discount": null,
      "ending_balance": 0,
      "forgiven": false,
      "lines": {
        "object": "list",
        "data": [
          {
            "id": "sub_AcuEqP91RB4gNz",
            "object": "line_item",
            "amount": 999,
            "currency": "usd",
            "description": null,
            "discountable": true,
            "livemode": false,
            "metadata": {
            },
            "period": {
              "start": 1494359696,
              "end": 1497038096
            },
            "plan": {
              "id": "S-100",
              "object": "plan",
              "amount": 999,
              "created": 1489679355,
              "currency": "usd",
              "interval": "month",
              "interval_count": 1,
              "livemode": false,
              "metadata": {
              },
              "name": "Silver",
              "statement_descriptor": null,
              "trial_period_days": null
            },
            "proration": false,
            "quantity": 1,
            "subscription": null,
            "subscription_item": "si_1AHeQ8IF8FPjO9pQoaB2xUl0",
            "type": "subscription"
          }
        ],
        "has_more": false,
        "total_count": 1,
        "url": "/v1/invoices/in_1AHeQ8IF8FPjO9pQrb32UAfs/lines"
      },
      "livemode": false,
      "metadata": {
      },
      "next_payment_attempt": null,
      "paid": true,
      "period_end": 1494359696,
      "period_start": 1494359696,
      "receipt_number": null,
      "starting_balance": 0,
      "statement_descriptor": null,
      "subscription": "sub_AcuEqP91RB4gNz",
      "subtotal": 999,
      "tax": null,
      "tax_percent": null,
      "total": 999,
      "webhooks_delivered_at": null
    }
  }
}
