<?xml version="1.0" encoding="UTF-8"?>
<svg width="52px" height="24px" viewBox="0 0 52 24" version="1.1" xmlns="http://www.w3.org/2000/svg" xmlns:xlink="http://www.w3.org/1999/xlink">
    <!-- Generator: Sketch 46.1 (44463) - http://www.bohemiancoding.com/sketch -->
    <title>Logo/Mark/White</title>
    <desc>Created with Sketch.</desc>
    <defs>
        <linearGradient x1="169.200721%" y1="-107.405599%" x2="0%" y2="100%" id="linearGradient-1">
            <stop stop-color="#136F63" offset="0%"></stop>
            <stop stop-color="#4CE0D2" offset="100%"></stop>
        </linearGradient>
    </defs>
    <g id="Symbols" stroke="none" stroke-width="1" fill="none" fill-rule="evenodd">
        <g id="Logo/Mark/Gradient" fill="url(#linearGradient-1)">
            <path d="M40.4444444,0 C33.4964518,0 32.7085156,13.3548763 26,13.3548763 C20.4469557,13.3548763 18.8946729,5.81807278 13.9836039,5.81807278 C5.79820809,5.81807278 0,24 0,24 L52,24 C52,24 48.1161336,0 40.4444444,0" id="Logo/Mark/White"></path>
        </g>
    </g>
</svg>