{
  "txn_id": "invoice-001",
  "amount3": "16.99",
  "address_status": "confirmed",
  "payment_date": "16:51:27 Oct 27, 2017 PDT",
  "payer_id": "Z5T9JGXRSJ2KL",
  "address_street": "1 Main St",
  "mc_amount3": "16.99",
  "mc_gross": "16.99",
  "charset": "windows-1252",
  "address_zip": "95131",
  "first_name": "test",
  "reattempt": "1",
  "address_country_code": "US",
  "address_name": "test buyer",
  "notify_version": "3.8",
  "subscr_id": "I-5051BCK2VD8H",
  "payer_status": "verified",
  "business": "saasowner@gmail.com",
  "address_country": "United States",
  "address_city": "San Jose",
  "verify_sign": "ATbMU602flG3KAfxoD5cPh9QHE1jArkcLkF8-IVsaFu.f4hTadDJbjNe",
  "payer_email": "andrewjohnmg@gmail.com",
  "btn_id": "3741481",
  "last_name": "buyer",
  "address_state": "CA",
  "receiver_email": "saasowner@gmail.com",
  "recurring": "1",
  "txn_type": "subscr_payment",
  "item_name": "My Sample Subscription Button",
  "mc_currency": "USD",
  "item_number": "PP-SILVER-100",
  "residence_country": "US",
  "test_ipn": "1",
  "period3": "1 M",
  "ipn_track_id": "a9a162e588266"
}
