{
  "type": "service_account",
  "project_id": "fsaas-8d8e7",
  "private_key_id": "32f53f6fe41b51757cb055a97e7dbec8138cfb27",
  "private_key": "-----BEGIN PRIVATE KEY-----\nMIIEvwIBADANBgkqhkiG9w0BAQEFAASCBKkwggSlAgEAAoIBAQDEfwV8J5EWVYno\ngOI/XWN2TzoEarm3anm8Uhnk6EJgcuxKX+iiwuQH3bewrlyUWRQbFSucgdo4gHli\n+Tg8fs7phuIEEwviyOBQZjlnGzyXc3Mm6FCD4p8JwI1PPqMyu451tv3dqzAY1vWp\n8NMMYDBxVdTuvUSlZjYBjmY5+/J0nKmc2dbXNlntPHhk/xukYxbbcy/20ZOHDhfN\nh450qVqqOxwIEH8FxF3pUGwS73uPpvuAySvRIs0teD8Fbj1cPZc5REz11fUZLHCo\nOmFHysAkTBLYpQAjtH5b1ku34yu91LkgdwPdKDb4MMrj2L9EqqpXNzilOMzjFLCQ\nzEr9Tuz5AgMBAAECggEBAK4ow0zKqP75q/UGnwF4nZqUGCEoExltZx6ySj8oWQSx\nd5toLIJuaLxMGO6hbG8UEQz8E55xPWCNBonhyKVd47j6E0N3Oja0wpSgNkqbynWW\nHz8h85MhfsKfBuBw7ScfM+JD4fjiLQwnIrCQQg8bBnS9lbBQ0xIiaMWyWAsWs0wE\nq4cLVCa+ELBkYpdXA99PLIEo7HUQeZLQQ5jFwIitGVxOECNRjQRzipleSYFUM8uW\n3YHfWwckvBjvZ/QQUyGM7pfHJzNATYO4j+R9tiMhblTd6o7Bu0FW+vDMH7fgXGOW\ncLmARZ4Sr8ehSpeosBdrlAXSQ/jq0V0IL8XRLCwxpPECgYEA98Pmby8Ra7wu5M+6\nOXdibKIcppClFcvD5/mO6vhkHNyyYnbwjhiYA8DQa+VflfLpLHbD2gfyykAHOrcn\nAR5nX3op9+XxCNYgJG4JRgNfIIw7AUmRClkzp+2o1WWCJ4mXd7759jJF7eJltgNQ\nrgpAVgwkjazA2+J69FXbDmAHv0UCgYEAywbmlWPL9fNdiTx5kyhyA5rFJ35deEGx\nIwVEuQ1jK6FZp3pnF/X7EiLs6DoEoSFGldFEBDjAg1husvpcIQBVk20NEjdxK1Zf\nibUPuCaCwTKM8HwEAGzc4oHNb6z+pH01shljEpEYni135j/ShxoqQFTUQ1f8frhp\nsYVRdFUvqCUCgYEAuG4KyhivTxL1lT1L0hscGOFTkml5eZAEdFlAGYhsfU+LOeBv\nkFaeUazleGt1i5kWGRMPFu1zvTmMKBjN3/dR27CELRPtKDa8FmISZRt9ZCz+fybT\n4HAmE4rFcpPtHqE9LtXqG2mwxDMSozo0hFj9KxA+5XcC2Krt+5MtTLYPDkECgYEA\nx4XymaHH0d/nbnVGLT60PaKeWp+vD/3PLVGCJjJn4Xrh9tst8bhFk59LHzXVUty2\n14kexN9ZIjuIHtA4Nh5z+zxSejKOPz7VCSotVpZSLbeWFshpzlkuAlP6JuPmJJUA\nbhTQ7nA1t02L5XWXWjp2h15WdBBGDesBw/n3ANKu0RkCgYBuuvMrqo8SgX4TwJx3\nq/Pi7BZHD9pPiKY5tUitZXevKhYFRHClG2DVO+uahzcGIznEeN6oK7OAuEQYfedE\nej7kBdKbrkvjUq6tL+ZvRafNcPveshAKkpyZCJQZHdOG9KXkHdBfrufAI1Q6KdGj\npfYQLixxdgq/xJ/8yR4sU/yluA==\n-----END PRIVATE KEY-----\n",
  "client_email": "firebase-adminsdk-1gwio@fsaas-8d8e7.iam.gserviceaccount.com",
  "client_id": "112968368194066116643",
  "auth_uri": "https://accounts.google.com/o/oauth2/auth",
  "token_uri": "https://accounts.google.com/o/oauth2/token",
  "auth_provider_x509_cert_url": "https://www.googleapis.com/oauth2/v1/certs",
  "client_x509_cert_url": "https://www.googleapis.com/robot/v1/metadata/x509/firebase-adminsdk-1gwio%40fsaas-8d8e7.iam.gserviceaccount.com"
}
